IF-AXI4/sim/easy_axi_tb.vcd
$date
	Sat Feb 25 11:58:28 2023
$end
$version
	Icarus Verilog
$end
$timescale
	1ps
$end
$scope module AXI_TB $end
$var wire 1 ! axi_aclk $end
$var wire 2 " axi_arburst [1:0] $end
$var wire 4 # axi_arcache [3:0] $end
$var wire 1 $ axi_aresetn $end
$var wire 1 % axi_arid $end
$var wire 8 & axi_arlen [7:0] $end
$var wire 1 ' axi_arlock $end
$var wire 3 ( axi_arprot [2:0] $end
$var wire 4 ) axi_arqos [3:0] $end
$var wire 4 * axi_arregion [3:0] $end
$var wire 2 + axi_awburst [1:0] $end
$var wire 4 , axi_awcache [3:0] $end
$var wire 1 - axi_awid $end
$var wire 8 . axi_awlen [7:0] $end
$var wire 1 / axi_awlock $end
$var wire 3 0 axi_awprot [2:0] $end
$var wire 4 1 axi_awqos [3:0] $end
$var wire 4 2 axi_awregion [3:0] $end
$var wire 4 3 axi_wstrb [3:0] $end
$var wire 1 4 txn_done $end
$var wire 1 5 axi_wvalid $end
$var wire 1 6 axi_wready $end
$var wire 1 7 axi_wlast $end
$var wire 32 8 axi_wdata [31:0] $end
$var wire 1 9 axi_rvalid $end
$var wire 2 : axi_rresp [1:0] $end
$var wire 1 ; axi_rready $end
$var wire 1 < axi_rlast $end
$var wire 1 = axi_rid $end
$var wire 32 > axi_rdata [31:0] $end
$var wire 1 ? axi_bvalid $end
$var wire 2 @ axi_bresp [1:0] $end
$var wire 1 A axi_bready $end
$var wire 1 B axi_bid $end
$var wire 1 C axi_awvalid $end
$var wire 3 D axi_awsize [2:0] $end
$var wire 1 E axi_awready $end
$var wire 32 F axi_awaddr [31:0] $end
$var wire 1 G axi_arvalid $end
$var wire 3 H axi_arsize [2:0] $end
$var wire 1 I axi_arready $end
$var wire 32 J axi_araddr [31:0] $end
$var reg 1 K clk $end
$var reg 1 L rst_n $end
$var reg 1 M txn_start $end
$var reg 2 N txn_type [1:0] $end
$scope module U_M_AXI_0 $end
$var wire 7 O burst_size_bytes [6:0] $end
$var wire 1 ! m_axi_aclk $end
$var wire 2 P m_axi_arburst [1:0] $end
$var wire 4 Q m_axi_arcache [3:0] $end
$var wire 1 $ m_axi_aresetn $end
$var wire 1 % m_axi_arid $end
$var wire 8 R m_axi_arlen [7:0] $end
$var wire 1 ' m_axi_arlock $end
$var wire 3 S m_axi_arprot [2:0] $end
$var wire 4 T m_axi_arqos [3:0] $end
$var wire 4 U m_axi_arregion [3:0] $end
$var wire 1 G m_axi_arvalid $end
$var wire 2 V m_axi_awburst [1:0] $end
$var wire 4 W m_axi_awcache [3:0] $end
$var wire 1 - m_axi_awid $end
$var wire 8 X m_axi_awlen [7:0] $end
$var wire 1 / m_axi_awlock $end
$var wire 3 Y m_axi_awprot [2:0] $end
$var wire 4 Z m_axi_awqos [3:0] $end
$var wire 4 [ m_axi_awregion [3:0] $end
$var wire 1 C m_axi_awvalid $end
$var wire 1 A m_axi_bready $end
$var wire 1 ; m_axi_rready $end
$var wire 32 \ m_axi_wdata [31:0] $end
$var wire 1 7 m_axi_wlast $end
$var wire 4 ] m_axi_wstrb [3:0] $end
$var wire 1 5 m_axi_wvalid $end
$var wire 1 ^ read_resp_error $end
$var wire 1 4 txn_done $end
$var wire 1 M txn_start $end
$var wire 1 _ txn_start_pulse $end
$var wire 2 ` txn_type [1:0] $end
$var wire 1 a write_resp_error $end
$var wire 1 6 m_axi_wready $end
$var wire 1 9 m_axi_rvalid $end
$var wire 2 b m_axi_rresp [1:0] $end
$var wire 1 < m_axi_rlast $end
$var wire 1 = m_axi_rid $end
$var wire 32 c m_axi_rdata [31:0] $end
$var wire 1 ? m_axi_bvalid $end
$var wire 2 d m_axi_bresp [1:0] $end
$var wire 1 B m_axi_bid $end
$var wire 3 e m_axi_awsize [2:0] $end
$var wire 1 E m_axi_awready $end
$var wire 32 f m_axi_awaddr [31:0] $end
$var wire 3 g m_axi_arsize [2:0] $end
$var wire 1 I m_axi_arready $end
$var wire 32 h m_axi_araddr [31:0] $end
$var reg 32 i axi_araddr [31:0] $end
$var reg 1 j axi_arvalid $end
$var reg 32 k axi_awaddr [31:0] $end
$var reg 1 l axi_awvalid $end
$var reg 1 m axi_bready $end
$var reg 1 n axi_rready $end
$var reg 32 o axi_wdata [31:0] $end
$var reg 1 p axi_wlast $end
$var reg 1 5 axi_wvalid $end
$var reg 1 q burst_read_active $end
$var reg 1 r burst_write_active $end
$var reg 2 s mst_exestate [1:0] $end
$var reg 5 t read_index [4:0] $end
$var reg 1 u reads_done $end
$var reg 1 v start_single_burst_read $end
$var reg 1 w start_single_burst_write $end
$var reg 1 x txn_start_ff $end
$var reg 1 y txn_start_ff2 $end
$var reg 5 z write_index [4:0] $end
$var reg 1 { writes_done $end
$scope function clogb2 $end
$var integer 32 | bit_depth [31:0] $end
$upscope $end
$upscope $end
$scope module U_S_AXI_0 $end
$var wire 1 ! s_axi_aclk $end
$var wire 32 } s_axi_araddr [31:0] $end
$var wire 2 ~ s_axi_arburst [1:0] $end
$var wire 4 !" s_axi_arcache [3:0] $end
$var wire 1 $ s_axi_aresetn $end
$var wire 1 % s_axi_arid $end
$var wire 8 "" s_axi_arlen [7:0] $end
$var wire 1 ' s_axi_arlock $end
$var wire 3 #" s_axi_arprot [2:0] $end
$var wire 4 $" s_axi_arqos [3:0] $end
$var wire 1 I s_axi_arready $end
$var wire 4 %" s_axi_arregion [3:0] $end
$var wire 3 &" s_axi_arsize [2:0] $end
$var wire 1 G s_axi_arvalid $end
$var wire 32 '" s_axi_awaddr [31:0] $end
$var wire 2 (" s_axi_awburst [1:0] $end
$var wire 4 )" s_axi_awcache [3:0] $end
$var wire 1 - s_axi_awid $end
$var wire 8 *" s_axi_awlen [7:0] $end
$var wire 1 / s_axi_awlock $end
$var wire 3 +" s_axi_awprot [2:0] $end
$var wire 4 ," s_axi_awqos [3:0] $end
$var wire 1 E s_axi_awready $end
$var wire 4 -" s_axi_awregion [3:0] $end
$var wire 3 ." s_axi_awsize [2:0] $end
$var wire 1 C s_axi_awvalid $end
$var wire 1 B s_axi_bid $end
$var wire 1 A s_axi_bready $end
$var wire 2 /" s_axi_bresp [1:0] $end
$var wire 1 ? s_axi_bvalid $end
$var wire 32 0" s_axi_rdata [31:0] $end
$var wire 1 = s_axi_rid $end
$var wire 1 < s_axi_rlast $end
$var wire 1 ; s_axi_rready $end
$var wire 2 1" s_axi_rresp [1:0] $end
$var wire 1 9 s_axi_rvalid $end
$var wire 32 2" s_axi_wdata [31:0] $end
$var wire 1 7 s_axi_wlast $end
$var wire 1 6 s_axi_wready $end
$var wire 4 3" s_axi_wstrb [3:0] $end
$var wire 1 5 s_axi_wvalid $end
$var wire 6 4" mem_address [5:0] $end
$var wire 32 5" aw_wrap_size [31:0] $end
$var wire 1 6" aw_wrap_en $end
$var wire 32 7" ar_wrap_size [31:0] $end
$var wire 1 8" ar_wrap_en $end
$var reg 32 9" axi_araddr [31:0] $end
$var reg 2 :" axi_arburst [1:0] $end
$var reg 8 ;" axi_arlen [7:0] $end
$var reg 1 <" axi_arready $end
$var reg 32 =" axi_awaddr [31:0] $end
$var reg 2 >" axi_awburst [1:0] $end
$var reg 8 ?" axi_awlen [7:0] $end
$var reg 1 @" axi_awready $end
$var reg 2 A" axi_bresp [1:0] $end
$var reg 1 ? axi_bvalid $end
$var reg 32 B" axi_rdata [31:0] $end
$var reg 1 C" axi_rlast $end
$var reg 2 D" axi_rresp [1:0] $end
$var reg 1 9 axi_rvalid $end
$var reg 1 E" axi_wready $end
$var reg 1 F" burst_read_active $end
$var reg 1 G" burst_write_active $end
$var reg 8 H" read_index [7:0] $end
$var reg 8 I" write_index [7:0] $end
$scope begin BRAM_GEN[0] $end
$var wire 1 J" mem_rden $end
$var wire 1 K" mem_wren $end
$scope begin BYTE_BRAM_GEN[0] $end
$var wire 8 L" data_in [7:0] $end
$var wire 8 M" data_out [7:0] $end
$upscope $end
$scope begin BYTE_BRAM_GEN[1] $end
$var wire 8 N" data_in [7:0] $end
$var wire 8 O" data_out [7:0] $end
$upscope $end
$scope begin BYTE_BRAM_GEN[2] $end
$var wire 8 P" data_in [7:0] $end
$var wire 8 Q" data_out [7:0] $end
$upscope $end
$scope begin BYTE_BRAM_GEN[3] $end
$var wire 8 R" data_in [7:0] $end
$var wire 8 S" data_out [7:0] $end
$upscope $end
$upscope $end
$scope begin genblk1 $end
$upscope $end
$scope begin incr $end
$upscope $end
$scope begin norm $end
$upscope $end
$scope begin wrapping $end
$upscope $end
$upscope $end
$scope task start_read $end
$upscope $end
$scope task start_write $end
$upscope $end
$upscope $end
$enddefinitions $end
#0
$dumpvars
bx S"
bx R"
bx Q"
bx P"
bx O"
bx N"
bx M"
bx L"
xK"
xJ"
bx I"
bx H"
xG"
xF"
xE"
bx D"
xC"
bx B"
bx A"
x@"
bx ?"
bx >"
bx ="
x<"
bx ;"
bx :"
bx 9"
x8"
bx 7"
x6"
bx 5"
bx 4"
b1111 3"
bx 2"
bx 1"
bx 0"
bx /"
b10 ."
b0 -"
b0 ,"
b0 +"
b1111 *"
b10 )"
b1 ("
bx '"
b10 &"
b0 %"
b0 $"
b0 #"
b1111 ""
b10 !"
b1 ~
bx }
b0 |
x{
bx z
xy
xx
xw
xv
xu
bx t
bx s
xr
xq
xp
bx o
xn
xm
xl
bx k
xj
bx i
bx h
b10 g
bx f
b10 e
bx d
bx c
bx b
xa
b0 `
x_
x^
b1111 ]
bx \
b0 [
b0 Z
b0 Y
b1111 X
b10 W
b1 V
b0 U
b0 T
b0 S
b1111 R
b10 Q
b1 P
b1000000 O
b0 N
0M
0L
0K
bx J
xI
b10 H
xG
bx F
xE
b10 D
xC
0B
xA
bx @
x?
bx >
0=
x<
x;
bx :
x9
bx 8
x7
x6
x5
x4
b1111 3
b0 2
b0 1
b0 0
0/
b1111 .
0-
b10 ,
b1 +
b0 *
b0 )
b0 (
0'
b1111 &
0%
0$
b10 #
b1 "
0!
$end
#5000
14
b0 4"
16"
0a
18"
0^
0_
b0 L"
b0 N"
b0 P"
b0 R"
0K"
0y
0x
0C
0l
b1000000000000000000000000000000 F
b1000000000000000000000000000000 f
b1000000000000000000000000000000 '"
b0 k
05
07
0p
b0 z
b0 8
b0 \
b0 o
b0 2"
0A
0m
0G
0j
b1000000000000000000000000000000 J
b1000000000000000000000000000000 h
b1000000000000000000000000000000 }
b0 i
b0 t
0;
0n
0v
0w
b0 s
0r
0{
0q
0u
0G"
0E
0@"
b0 5"
b0 ?"
b0 >"
b0 I"
b0 ="
06
0E"
b0 @
b0 d
b0 /"
b0 A"
0?
0J"
0F"
0I
0<"
0<
0C"
b0 H"
b0 7"
b0 ;"
b0 :"
b0 9"
b0 :
b0 b
b0 1"
b0 D"
09
1!
1K
#10000
0!
0K
#15000
1!
1K
#20000
0!
0K
#25000
1!
1K
#30000
0!
0K
#35000
1!
1K
#40000
0!
0K
#45000
1!
1K
#50000
0!
0K
1$
1L
#55000
1!
1K
#60000
0!
0K
#65000
1!
1K
#70000
0!
0K
#75000
1!
1K
#80000
0!
0K
#85000
1!
1K
#90000
0!
0K
#95000
1!
1K
#100000
0!
0K
#105000
1!
1K
#110000
0!
0K
#115000
1!
1K
#120000
0!
0K
#125000
1!
1K
#130000
0!
0K
#135000
1!
1K
#140000
0!
0K
#145000
1!
1K
#150000
0!
0K
1M
b1 N
b1 `
#155000
1_
1x
1!
1K
#160000
0!
0K
#165000
0_
1y
b1 s
1!
1K
#170000
0!
0K
#175000
1w
1!
1K
#180000
0!
0K
#185000
04
1C
1l
15
1r
1!
1K
#190000
0!
0K
#195000
06"
b111100 5"
b1111 ?"
b1 >"
b1000000000000000000000000000000 ="
1G"
1E
1@"
0w
1!
1K
#200000
0!
0K
0M
#205000
1K"
0x
0C
0l
b1000000000000000000000001000000 F
b1000000000000000000000001000000 f
b1000000000000000000000001000000 '"
b1000000 k
0E
0@"
16
1E"
1!
1K
#210000
0!
0K
#215000
b1 4"
b1 L"
b1000000000000000000000000000100 ="
b1 I"
bx S"
bx Q"
bx O"
bx M"
b1 8
b1 \
b1 o
b1 2"
b1 z
0y
1!
1K
#220000
0!
0K
#225000
b10 4"
b10 L"
b10 z
b10 8
b10 \
b10 o
b10 2"
bx M"
bx O"
bx Q"
bx S"
b1000000000000000000000000001000 ="
b10 I"
1!
1K
#230000
0!
0K
#235000
b11 4"
b11 L"
b1000000000000000000000000001100 ="
b11 I"
bx S"
bx Q"
bx O"
bx M"
b11 8
b11 \
b11 o
b11 2"
b11 z
1!
1K
#240000
0!
0K
#245000
b100 4"
b100 L"
b100 z
b100 8
b100 \
b100 o
b100 2"
bx M"
bx O"
bx Q"
bx S"
b1000000000000000000000000010000 ="
b100 I"
1!
1K
#250000
0!
0K
#255000
b101 4"
b101 L"
b1000000000000000000000000010100 ="
b101 I"
bx S"
bx Q"
bx O"
bx M"
b101 8
b101 \
b101 o
b101 2"
b101 z
1!
1K
#260000
0!
0K
#265000
b110 4"
b110 L"
b110 z
b110 8
b110 \
b110 o
b110 2"
bx M"
bx O"
bx Q"
bx S"
b1000000000000000000000000011000 ="
b110 I"
1!
1K
#270000
0!
0K
#275000
b111 4"
b111 L"
b1000000000000000000000000011100 ="
b111 I"
bx S"
bx Q"
bx O"
bx M"
b111 8
b111 \
b111 o
b111 2"
b111 z
1!
1K
#280000
0!
0K
#285000
b1000 4"
b1000 L"
b1000 z
b1000 8
b1000 \
b1000 o
b1000 2"
bx M"
bx O"
bx Q"
bx S"
b1000000000000000000000000100000 ="
b1000 I"
1!
1K
#290000
0!
0K
#295000
b1001 4"
b1001 L"
b1000000000000000000000000100100 ="
b1001 I"
bx S"
bx Q"
bx O"
bx M"
b1001 8
b1001 \
b1001 o
b1001 2"
b1001 z
1!
1K
#300000
0!
0K
#305000
b1010 4"
b1010 L"
b1010 z
b1010 8
b1010 \
b1010 o
b1010 2"
bx M"
bx O"
bx Q"
bx S"
b1000000000000000000000000101000 ="
b1010 I"
1!
1K
#310000
0!
0K
#315000
b1011 4"
b1011 L"
b1000000000000000000000000101100 ="
b1011 I"
bx S"
bx Q"
bx O"
bx M"
b1011 8
b1011 \
b1011 o
b1011 2"
b1011 z
1!
1K
#320000
0!
0K
#325000
b1100 4"
b1100 L"
b1100 z
b1100 8
b1100 \
b1100 o
b1100 2"
bx M"
bx O"
bx Q"
bx S"
b1000000000000000000000000110000 ="
b1100 I"
1!
1K
#330000
0!
0K
#335000
b1101 4"
b1101 L"
b1000000000000000000000000110100 ="
b1101 I"
bx S"
bx Q"
bx O"
bx M"
b1101 8
b1101 \
b1101 o
b1101 2"
b1101 z
1!
1K
#340000
0!
0K
#345000
b1110 4"
b1110 L"
b1110 z
b1110 8
b1110 \
b1110 o
b1110 2"
bx M"
bx O"
bx Q"
bx S"
b1000000000000000000000000111000 ="
b1110 I"
1!
1K
#350000
0!
0K
#355000
b1111 4"
16"
b1111 L"
b1000000000000000000000000111100 ="
b1111 I"
bx S"
bx Q"
bx O"
bx M"
b1111 8
b1111 \
b1111 o
b1111 2"
b1111 z
17
1p
1!
1K
#360000
0!
0K
#365000
b0 4"
06"
b10000 L"
0K"
05
07
0p
b10000 8
b10000 \
b10000 o
b10000 2"
b0 M"
b0 O"
b0 Q"
b0 S"
0G"
b1000000000000000000000001000000 ="
b10000 I"
06
0E"
1?
1!
1K
#370000
0!
0K
#375000
1A
1m
1!
1K
#380000
0!
0K
#385000
14
0A
0m
0r
1{
0?
1!
1K
#390000
0!
0K
#395000
0{
b0 s
1!
1K
